Service is recall at 8/4/2021 1:21:24 AM
Service is stopped at 8/4/2021 1:21:28 AM
Service is started at 8/4/2021 1:24:30 AM
Service is stopped at 8/4/2021 1:24:33 AM
Service is started at 8/4/2021 1:24:51 AM
Service is stopped at 8/4/2021 1:24:54 AM
